..........................
----------------------------------------------------------------------
Ran 26 tests in 0.203s

OK
Name             Stmts   Miss Branch BrPart  Cover   Missing
------------------------------------------------------------
Collatz.py          63      0     28      0   100%
TestCollatz.py     109      0      0      0   100%
------------------------------------------------------------
TOTAL              172      0     28      0   100%
