...................
----------------------------------------------------------------------
Ran 19 tests in 9.042s

OK
Name             Stmts   Miss Branch BrPart  Cover   Missing
------------------------------------------------------------
Collatz.py          56      0     28      0   100%
TestCollatz.py      83      0      2      0   100%
------------------------------------------------------------
TOTAL              139      0     30      0   100%
