...................
----------------------------------------------------------------------
Ran 19 tests in 0.065s

OK
Name             Stmts   Miss Branch BrPart  Cover   Missing
------------------------------------------------------------
Collatz.py          63      0     28      0   100%
TestCollatz.py      81      0      0      0   100%
------------------------------------------------------------
TOTAL              144      0     28      0   100%
