....................
----------------------------------------------------------------------
Ran 20 tests in 1.640s

OK
Name             Stmts   Miss Branch BrPart  Cover   Missing
------------------------------------------------------------
Collatz.py          33      0     12      0   100%
TestCollatz.py      86      0      0      0   100%
------------------------------------------------------------
TOTAL              119      0     12      0   100%
