1 10 20
10 1 20
100 200 125
1 999999 525
201 210 89
900 1000 174
1 1 1
233 796 171
637 683 145
445 659 145
75 618 144
430 764 171
1 554 144
892 968 174
582 597 119
350 974 179
93 720 171
185 306 128
86 203 125
524 987 179
214 539 144
31 594 144
380 914 179
248 899 179
202 870 171
569 935 179
568 976 179
776 820 135
194 391 144
282 719 171
50 691 145
233 973 179
80 562 144
445 888 179
345 961 179
74 714 171
57 253 128
288 597 144
72 766 171
209 900 179
577 746 171
719 951 179
102 842 171
293 842 171
538 634 137
568 585 119
736 977 179
255 592 144
881 970 174
761 778 153
673 726 171
493 625 137
467 526 142
671 886 179
359 561 142
875 964 174
195 882 179
78 737 171
239 501 144
99 421 144
544 636 137
137 521 144
845 954 179
47 205 125
45 740 171
19 454 144
640 734 171
117 489 144
34 722 171
758 949 179
479 589 142
7 560 144
467 758 171
50 986 179
47 822 171
702 734 171
450 591 142
317 706 171
236 778 171
314 628 144
421 912 179
65 343 144
829 890 179
186 1000 179
235 715 171
109 358 144
611 736 171
514 701 145
64 683 145
613 641 132
214 650 145
131 573 144
12 557 144
47 601 144
635 644 132
299 463 144
694 896 179
783 900 179
348 868 171
83 679 145
959 970 143
214 950 179
46 338 144
230 908 179
372 743 171
345 840 171
159 944 179
423 957 179
361 541 142
104 947 179
497 632 137
53 659 145
704 983 179
207 376 144
367 503 142
3 854 171
242 462 144
34 639 144
439 445 116
729 744 140
76 265 128
542 664 145
548 753 171
155 336 144
401 790 171
15 761 171
365 993 179
