....................
----------------------------------------------------------------------
Ran 20 tests in 10.658s

OK
Name             Stmts   Miss Branch BrPart  Cover   Missing
------------------------------------------------------------
Collatz.py          44      0     14      0   100%
TestCollatz.py      86      0      0      0   100%
------------------------------------------------------------
TOTAL              130      0     14      0   100%
